@startuml
skinparam style strictuml
title Request Trainer Assignment
Actor Trainee
Trainee -> TrainerAssignmentController : requestTrainerAssignment
activate TrainerAssignmentController
TrainerAssignmentController -> TrainerAssignmentService : requestTrainerAssignment
activate TrainerAssignmentService
TrainerAssignmentService -> UserRepository : findById
activate UserRepository
UserRepository --> TrainerAssignmentService : User
deactivate UserRepository
TrainerAssignmentService -> TrainerAssignmentRepository : findByTraineeAndTrainer
activate TrainerAssignmentRepository
TrainerAssignmentRepository --> TrainerAssignmentService : trainerAssignment
deactivate TrainerAssignmentRepository
TrainerAssignmentService -> TrainerAssignmentService : checkIfTraineAlreadyAssigned
activate TrainerAssignmentService
break Alreay has pending TrainerAssignment
TrainerAssignmentService --> Trainee : IllegalArgumentException
end
deactivate TrainerAssignmentService
TrainerAssignmentService -> TrainerAssignment : builder
activate TrainerAssignment
create TrainerAssignmentBuilder
TrainerAssignment -> TrainerAssignmentBuilder : new
activate TrainerAssignmentBuilder
TrainerAssignmentBuilder --> TrainerAssignment
deactivate TrainerAssignmentBuilder
TrainerAssignment --> TrainerAssignmentService
deactivate TrainerAssignment
TrainerAssignmentService -> TrainerAssignmentBuilder : trainer
activate TrainerAssignmentBuilder
TrainerAssignmentBuilder --> TrainerAssignmentService
deactivate TrainerAssignmentBuilder
TrainerAssignmentService -> TrainerAssignmentBuilder : trainee
activate TrainerAssignmentBuilder
TrainerAssignmentBuilder --> TrainerAssignmentService
deactivate TrainerAssignmentBuilder
TrainerAssignmentService -> TrainerAssignmentBuilder : status
activate TrainerAssignmentBuilder
TrainerAssignmentBuilder --> TrainerAssignmentService
deactivate TrainerAssignmentBuilder
TrainerAssignmentService -> TrainerAssignmentBuilder : build
activate TrainerAssignmentBuilder
create TrainerAssignment
TrainerAssignmentBuilder -> TrainerAssignment : new
activate TrainerAssignment
TrainerAssignment --> TrainerAssignmentBuilder: trainerAssignment
deactivate TrainerAssignment
TrainerAssignmentBuilder --> TrainerAssignmentService : trainerAssignment
deactivate TrainerAssignmentBuilder
TrainerAssignmentService -> TrainerAssignmentRepository : save(TrainerAssignment)
activate TrainerAssignmentRepository
deactivate TrainerAssignmentRepository
deactivate TrainerAssignmentService 
return : HTTP 200 Response
@enduml