@startuml
skinparam style strictuml

component "Fornt-end App" {
    portin p0
    portout p1
    [Vue App]
    [Vue App] -right-( HTTP_Server
}

cloud "AWS EC2" {
    component "server side application"{
        portin p2
        portout p3
        component "authentication"
        [controller Layer]
        component "business layer"{
            portout p4
            portin p5
            [AdminService]
            [UserService]
            [ExerciseService]
            [WorkoutPlanTemplateService]
            [StatsService]
            [TrainerAssignmentService]
        }
        p2 )-d-> authentication : Authentication
        [Persistance Layer (JPA)] -right-( JDBC 
        p2 )-> [controller Layer] : HTTP Request
        [controller Layer]-d..> p5
        p4 -[dashed]-> [Persistance Layer (JPA)]

    }
    database "H2"{
    JDBC -[dashed]..> [Database]
    }
    p5 -> [AdminService]
    p5 -> [UserService]
    p5 -> [ExerciseService]
    p5 -> [WorkoutPlanTemplateService]
    p5 -> [StatsService]
    p5 -> [TrainerAssignmentService]
    [AdminService] ---> p4
    [UserService]   ---> p4
    [ExerciseService] ---> p4
    [WorkoutPlanTemplateService] ---> p4
    [StatsService]  ---> p4
    [TrainerAssignmentService]  ---> p4 
    [controller Layer] )-d-> p3 : HTTP Response
}

p1 -d-( HTTP 
HTTP  ...> p2
HTTP_ ...> p0
p3 -u-( HTTP_ : HTTP Response
@enduml